Componente/rom8/simulation/qsim/rom8.msim.vcd
$comment
	File created using the following command:
		vcd file rom8.msim.vcd -direction
$end
$date
	Fri Jan 19 13:54:01 2018
$end
$version
	ModelSim Version 10.4b
$end
$timescale
	1ps
$end

$scope module rom8_vlg_vec_tst $end
$var reg 8 ! address [7:0] $end
$var wire 1 " data [7] $end
$var wire 1 # data [6] $end
$var wire 1 $ data [5] $end
$var wire 1 % data [4] $end
$var wire 1 & data [3] $end
$var wire 1 ' data [2] $end
$var wire 1 ( data [1] $end
$var wire 1 ) data [0] $end

$scope module i1 $end
$var wire 1 * gnd $end
$var wire 1 + vcc $end
$var wire 1 , unknown $end
$var tri1 1 - devclrn $end
$var tri1 1 . devpor $end
$var tri1 1 / devoe $end
$var wire 1 0 data[0]~output_o $end
$var wire 1 1 data[1]~output_o $end
$var wire 1 2 data[2]~output_o $end
$var wire 1 3 data[3]~output_o $end
$var wire 1 4 data[4]~output_o $end
$var wire 1 5 data[5]~output_o $end
$var wire 1 6 data[6]~output_o $end
$var wire 1 7 data[7]~output_o $end
$var wire 1 8 address[4]~input_o $end
$var wire 1 9 address[5]~input_o $end
$var wire 1 : address[6]~input_o $end
$var wire 1 ; address[7]~input_o $end
$var wire 1 < Mux1~0_combout $end
$var wire 1 = address[0]~input_o $end
$var wire 1 > Mux2~0_combout $end
$var wire 1 ? address[1]~input_o $end
$var wire 1 @ Mux4~0_combout $end
$var wire 1 A address[2]~input_o $end
$var wire 1 B Mux6~0_combout $end
$var wire 1 C address[3]~input_o $end
$var wire 1 D Mux8~0_combout $end
$upscope $end
$upscope $end
$enddefinitions $end
#0
$dumpvars
b0 !
0)
0(
0'
0&
0%
0$
0#
0"
0*
1+
x,
1-
1.
1/
00
01
02
03
04
05
06
07
08
09
0:
0;
1<
0=
0>
0?
0@
0A
0B
0C
0D
$end
#1000
b1 !
1=
1>
14
1%
#2000
b11 !
b10 !
0=
1?
1@
0>
04
15
1$
0%
#3000
b11 !
1=
1>
14
1%
#4000
b111 !
b101 !
b100 !
0=
0?
1A
1B
0@
0>
04
05
16
1#
0$
0%
#5000
b101 !
1=
1>
14
1%
#6000
b111 !
b110 !
0=
1?
1@
0>
04
15
1$
0%
#7000
b111 !
1=
1>
14
1%
#8000
b1111 !
b1011 !
b1001 !
b1000 !
0=
0?
0A
1C
1D
0B
0@
0>
04
05
06
17
1"
0#
0$
0%
#9000
b1001 !
1=
1>
14
1%
#10000
b1011 !
b1010 !
0=
1?
1@
0>
04
15
1$
0%
#11000
b1011 !
1=
1>
14
1%
#12000
b1111 !
b1101 !
b1100 !
0=
0?
1A
1B
0@
0>
04
05
16
1#
0$
0%
#13000
b1101 !
1=
1>
14
1%
#14000
b1111 !
b1110 !
0=
1?
1@
0>
04
15
1$
0%
#15000
b1111 !
1=
1>
14
1%
